"Barcode","Name","Description","Primary Group","Group 1","Purchase Price","Current Price","Original Price","Minimum Price "
6001240100011,"Doritos Nacho Cheese","Doritos Cheese","Snack","DORITOS",0.3,0.95,0.95,0.3
6091094000155,"Evian Water 1L","Evian 1L","Drink","EVIAN",0.4,1.95,1.95,0.4
3045471008114,"Heinz 300ML","Heinz Large","Food","HEINZ",1.5,3.45,3.45,1.5
9310155000710,"Kit Kat 4X","Kit Kat Large","Snack","KITKAT",0.3,0.75,0.75,0.3
9310072000787,"Minute Maid Apple Juice","Minute Apple","Drink","MINUTE",1.5,3.75,3.75,1.5
6001068360901,"Nescafe Red Cup","Nescafe Red Cup","Drink","NESCAFE",2,4,4,2
6091010140118,"Lipton Yellow Label Tea","Lipton Yellow Label","Drink","LIPTON",1,2.2,2.2,1
6091091000301,"Colgate Toothpaste","Colgate Maxfresh","Hygiene","COLGATE",1.2,3,3,1.2
8852849142395,"Kellogs Corn Flake","Kellogs Corn Flake","Food","KELLOGS",2,4.95,4.95,2
5449000000286,"Coca Cola Classic 330ML","Coca Cola 330ML","Drink","COCACOLA",0.75,1.5,1.5,0.75
5449000342933,"Barilla Mezze Penne","Barilla Penne","Food","BARILLA",1.5,4,4,1.5
